{
  "compilerOptions": {
    "baseUrl": ".",
    "outDir": "build",
    "rootDir": ".",
    "paths": {
      "assets/*": ["src/assets/*"],
      "components/*": ["src/components/*"],
      "constants/*": ["src/constants/*"],
      "helpers/*": ["src/helpers/*"],
      "hooks/*": ["src/hooks/*"],
      "language/*": ["src/language/*"],
      "layouts/*": ["src/layouts/*"],
      "pages/*": ["src/pages/*"],
      "public/*": ["src/public/*"],
      "router/*": ["src/router/*"],
      "service/*": ["src/service/*"],
      "store/*": ["src/store/*"],
      "scss/*": ["src/scss/*"]
    },
    "jsx": "react",
    "newLine": "lf",
    "target": "ESNext",
    "module": "CommonJS",
    "moduleResolution": "Node"
  }
}
